\relax 
\bibstyle{abbrv}
\citation{The rail for Dummy}
\citation{The metallurgy for Dummy}
\@writefile{lof}{\contentsline {figure}{\numberline {1}{\ignorespaces Rail welding system}}{2}}
\newlabel{fig:Rail welding system}{{1}{2}}
\@writefile{toc}{\contentsline {section}{\numberline {1}Difficulties to weld railway}{2}}
\newlabel{Difficulties to weld railway}{{1}{2}}
\@writefile{toc}{\contentsline {subsection}{\numberline {1.1}Difficulties to access}{2}}
\@writefile{toc}{\contentsline {subsection}{\numberline {1.2}Difficulties to control the environment}{2}}
\@writefile{toc}{\contentsline {section}{\numberline {2}The various welding method}{2}}
\@writefile{toc}{\contentsline {subsection}{\numberline {2.1}The melt metal}{3}}
\@writefile{toc}{\contentsline {subsection}{\numberline {2.2}The electrical process}{3}}
\@writefile{toc}{\contentsline {section}{\numberline {3}The simulation process}{3}}
\@writefile{toc}{\contentsline {subsection}{\numberline {3.1}The electrical process}{3}}
\@writefile{toc}{\contentsline {subsection}{\numberline {3.2}The thermal process}{3}}
\@writefile{toc}{\contentsline {section}{\numberline {4}The railroad around the world}{4}}
