\relax 
\bibstyle{abbrv}
\citation{Principle_MetLiq}
\@writefile{toc}{\contentsline {section}{\numberline {1}Ice Nucleation}{2}}
\newlabel{sec:section1}{{1}{2}}
\newlabel{sec:section1@cref}{{[section][1][]1}{[1][2][]2}}
\@writefile{toc}{\contentsline {paragraph}{}{2}}
\@writefile{toc}{\contentsline {subsection}{\numberline {1.1}Classical Nucleation Theory}{2}}
\@writefile{toc}{\contentsline {paragraph}{}{2}}
\newlabel{eqn:equation1}{{1}{2}}
\newlabel{eqn:equation1@cref}{{[equation][1][]1}{[1][2][]2}}
\@writefile{toc}{\contentsline {subsection}{\numberline {1.2}Two-Step Nucleation}{2}}
\@writefile{toc}{\contentsline {paragraph}{}{2}}
\citation{matsumoto_paper}
\@writefile{toc}{\contentsline {section}{\numberline {2}Water}{3}}
\newlabel{sec:section2}{{2}{3}}
\newlabel{sec:section2@cref}{{[section][2][]2}{[1][3][]3}}
\@writefile{toc}{\contentsline {paragraph}{}{3}}
\newlabel{eqn:equation2}{{2}{3}}
\newlabel{eqn:equation2@cref}{{[equation][2][]2}{[1][3][]3}}
\@writefile{toc}{\contentsline {subsection}{\numberline {2.1}Homogeneous Ice Nucleation}{3}}
\@writefile{toc}{\contentsline {paragraph}{}{3}}
\@writefile{lot}{\contentsline {table}{\numberline {1}{\ignorespaces \textbf  {Simulation at 0.98 extension.}}}{4}}
\newlabel{tab:table1}{{1}{4}}
\newlabel{tab:table1@cref}{{[table][1][]1}{[1][4][]4}}
\@writefile{toc}{\contentsline {subsection}{\numberline {2.2}Heterogeneous Ice Nucleation}{4}}
\@writefile{toc}{\contentsline {paragraph}{}{4}}
\newlabel{eqn:equation3}{{3}{4}}
\newlabel{eqn:equation3@cref}{{[equation][3][]3}{[1][4][]4}}
\bibdata{bib_rajendra_maharjan}
\@writefile{lof}{\contentsline {figure}{\numberline {1}{\ignorespaces The hydrogen bond network structure of water at a given time in inherent structures at t = 57ns. Lines indicate hydrogen bonds among water molecules, and the intermolecular bonds of water participating in such hydrogen bonds. Red balls represent oxygen atoms and white balls represent hydrogen atoms.}}{5}}
\newlabel{fig:figure1}{{1}{5}}
\newlabel{fig:figure1@cref}{{[figure][1][]1}{[1][4][]5}}
\@writefile{toc}{\contentsline {section}{\numberline {3}References}{5}}
