\contentsline {section}{\numberline {1}Ice Nucleation}{2}
\contentsline {paragraph}{}{2}
\contentsline {subsection}{\numberline {1.1}Classical Nucleation Theory}{2}
\contentsline {paragraph}{}{2}
\contentsline {subsection}{\numberline {1.2}Two-Step Nucleation}{2}
\contentsline {paragraph}{}{2}
\contentsline {section}{\numberline {2}Water}{3}
\contentsline {paragraph}{}{3}
\contentsline {subsection}{\numberline {2.1}Homogeneous Ice Nucleation}{3}
\contentsline {paragraph}{}{3}
\contentsline {subsection}{\numberline {2.2}Heterogeneous Ice Nucleation}{4}
\contentsline {paragraph}{}{4}
\contentsline {section}{\numberline {3}References}{5}
