\relax 
\@writefile{toc}{\contentsline {section}{\numberline {1}Computational assignment 3}{2}}
\@writefile{toc}{\contentsline {section}{\numberline {2}Three lump model}{4}}
\@writefile{toc}{\contentsline {section}{\numberline {3}four lump model}{6}}
